<?xml version="1.0" encoding="utf-8"?>
<!-- Generator: Adobe Illustrator 14.0.0, SVG Export Plug-In . SVG Version: 6.00 Build 43363)  -->
<!DOCTYPE svg PUBLIC "-//W3C//DTD SVG 1.1//EN" "http://www.w3.org/Graphics/SVG/1.1/DTD/svg11.dtd">
<svg version="1.1" id="Layer_1" xmlns="http://www.w3.org/2000/svg" xmlns:xlink="http://www.w3.org/1999/xlink" x="0px" y="0px"
	 width="211.539px" height="200.769px" viewBox="0 0 211.539 200.769" enable-background="new 0 0 211.539 200.769"
	 xml:space="preserve">
<path opacity="0.52" fill-rule="evenodd" clip-rule="evenodd" fill="#3F270D" d="M172.394,60.125
	C171.784,54.816,167.374,62.339,172.394,60.125L172.394,60.125z M132.251,4.545c-0.926,0.187-3.932,0.766-2.922,2.329
	C130.173,6.946,133.317,5.936,132.251,4.545z M119.585,14.361c-3.225,1.66-3.533,6.249,0.105,9.012
	C129.526,26.044,127.228,10.424,119.585,14.361z M158.421,98.634c0.996,2.004,4.031,2.118,4.936,1.583
	C161.616,99.982,160.304,98.417,158.421,98.634z M137.585,96.583c1.906,0.557,3.475,2.176,5.279,3.051
	c0.906,0.909,0.471,1.167,1.5,2.114c1.971-0.926,4.832,3.025,5.418,0.919C145.866,100.736,141.388,96.035,137.585,96.583z
	 M104.087,133.191c0.693-0.877,1.443-3.152,0.121-3.771C104.248,130.703,103.279,131.662,104.087,133.191z M90.248,112.703
	c0.738,1.092,1.738,1.367,2.803,1.441C92.205,113.384,91.513,112.15,90.248,112.703z M56.31,69.179
	c0.337,1.207,1.159,0.908,1.973,0.633C57.817,69.003,57.16,68.792,56.31,69.179z M55.664,196.849
	c2.695-0.867,2.177-3.932,2.718-5.934c2.862-10.582,9.281-19.902,11.444-30.615c2.179-5.727,5.542-10.791,8.001-16.48
	c1.407-3.25,2.008-6.869,3.489-10.037c2.292-4.902,5.186-9.455,6.717-14.172c1.452-4.465,3.164-14.932,9.345-13.873
	c1.542,6.557,8.438,11.668,6.606,18.441c1.488-1.068,0.326-1.75,2.595-2.162c0.484-2.746-1.246-6.203,0.063-8.686
	c1.912,0.268,4.613-1.943,6.377-1.221c-0.346,6.303,1.359,15.057,6.143,20.74c0.207-4.422-5.244-11.441-4.287-16.338
	c0.844-0.09,1.545,0.271,2.615-0.521c0.998-4.125,0.402-8.76,3.135-12.328c0.951,0.279,0.715,1.141,1.006,1.955
	c1.193-0.254-0.107-1.303,0.801-1.648c2.148,2.748,6.143,4.092,8.93,6.943c2.738,2.803,4.479,7.836,8.771,7.436
	c0.639-4.352-5.582-6.004-8.309-9.734c-0.574-0.789-0.494-1.863-1.014-2.775c-1.326-2.326-4.691-4.466-3.689-7.168
	c3.775,0.73,8.285,0.426,11.826,2.157c1.285,0.629,2.596,2.681,4.115,1.591c-4.471-2.752-8.662-6.371-13.373-8.367
	c-2.172-7.611,4.844-8.133,10.07-7.655c2.012,0.184,3.848-0.168,4.918-0.057c1.818,0.191,3.736,1.674,5.596,2.066
	c3.238,0.682,6.328,0.541,8.213,1.541c1.143,0.607,1.826,1.939,2.979,2.587c1.48,0.834,3.971,0.75,6.078,1.404
	c2.48,0.77,4.785,2.367,6.752,2.707c1.578,0.275,3.152-0.527,4.748-0.383c5.273,0.479,10.365,3.223,14.775,2.287
	c0.904-0.98,0.736-2.305-0.373-3.93c-3.768-1.748-8.309-1.027-12.16-2.807c-1.18-0.549-1.998-2.025-3.305-2.419
	c-2.053-0.621-3.742,0.496-5.893,0.559c-2.6,0.08-5.186-1.566-8.055-2.035c-1.521-0.249-3.02,0.379-4.422,0.215
	c-8.08-0.936-15.764-5.658-23.016-6.288c-1.17-1.909-4.035-2.444-3.996-5.361c1.537-0.271,3.381-1.501,4.58-0.709
	c-1.531-4.208-0.695-7.659,2.008-10.511c4.018-0.545,10.383-0.68,13.395-3.597c-1.264-3.412-4.588-1.097-6.887-0.576
	c-5.652,1.279-13.104,2.015-14.953-3.431c-1.08-0.314-1.396,1.152-2.934,1.509c-2.184-0.826-2.717-4.709-2.533-6.527
	c0.623-6.198,11.207-10.154,7.191-15.652c-9.705-0.4-6.328,13.281-15.879,15.59c-3.08-0.844-7.324-3.379-4.508-7.159
	c-0.859-1.847-3.066,0.515-3.947-1.265c-1.105-0.988,0.574-1.086-0.188-1.965c-0.527,0.233-1.105,0.625-1.313-0.147
	c-3.064-4.011-3.633-12.311-8.149-10.23c0.036,3.004,4.186,7.328-0.882,8.696c-3.567-2.351-2.499-6.875-4.547-10.436
	c-0.18-2.007,0.349-7.882-3.037-7.502c-1.553,6.485,5.788,15.82,1.561,21.45c-3.153-0.896-7.642-5.639-9.936-8.899
	c-1.925-2.731-4.545-12.706-9.816-12.667c-5.237,0.039-4.151,8.088-2.167,11.005c3.203,4.706,11.776,3.49,15.178,8.673
	c0.86,1.312,2.158,4.237,2.366,6.199c0.202,1.895-0.67,7.904-2.007,10.514c-1.593,3.104-2.811,5.348-6.31,6.957
	c-7.499-0.058-14.451,1.415-20.996-1.559c-2.349-1.068-4.682-4.213-7.56-1.88c0.148,2.864,3.261,3.25,5.279,3.054
	c3.475,1.895,7.08,3.373,10.867,4.297c0.915,1.105,1.77,2.396,2.505,4.068c-0.526,1.917-1.188,3.792-0.093,6.228
	c-0.253,0.804-1.511,0.41-2.606,1.342c-0.385,0.964,0.452,2.32-0.454,3.119c-4.742,3.415-9.183,4.385-14.178,6.885
	c-4.517,2.26-8.499,0.465-12.596,1.949c-4.408,1.594-6.711,1.596-9.625,3.715c-0.622,1.914,0.531,3.354,2.18,4.237
	c5.715-1.624,9.677,0.957,14.393-2.461c1.074-0.779,1.606-2.373,2.913-3.148c4.069-2.41,9.921-2.104,14.7-4.268
	c1.995,1.982,4.894,1.146,7.552,1.057c0.358,1.193-0.384,1.607,0.848,2.451c0.897,0.309,2.199-0.641,2.951,0.129
	c-0.244,0.92,1.669,2.531-0.13,2.951c0.306,1.389,1.964-0.113,1.49,1.293c-1.178,4.234-8.951,3.182-9.419,7.322
	c3.743,3.17,8.143-5.843,11.601-3.084c-0.709,1.402-3.497,2.145-2.41,4.123c2.694-0.957,2.943-4.219,5.341-5.632
	c1.397-0.824,3.443-0.688,5.065-1.371c0.631-0.266,3.012-3.131,4.245-1.362c-0.526,0.385-2.098-0.08-1.956,1.006
	C89.874,100,91.139,99.171,91.9,99.9c0.261,3.078-1.638,5.46-3.349,7.906c-2.605,12.045-7.5,23.354-12.708,34.563
	c-0.325,0.17-0.522-0.064-0.819,0.01c-0.217-0.457-0.521-0.637-0.829-0.811c-1.509,0.807,0.765,0.549,0.996,1.135
	c-0.247,5.879-4.458,10.234-7.36,15.328c-3.084,5.418-4.536,13.121-6.986,19.256c-1.829,4.576-3.134,9.369-4.92,13.658
	C55.118,192.88,52.38,195.066,55.664,196.849z M191.456,106.771c2.633,0.273,4.754,2.143,7.402,2.373
	C196.808,107.603,193.259,106.255,191.456,106.771z M173.7,101.9c1.18-0.008,1.918,1.371,3.285,0.779
	C176.255,101.814,173.94,101.479,173.7,101.9z M116.083,51.604c1.186-1.438,4.273-3.704,3.715-4.795
	C118.649,48.433,116.249,49.661,116.083,51.604z M160.95,26.253c-1.238,1.021-1.594,2.043-0.438,3.064
	C161.749,28.296,161.952,27.275,160.95,26.253z M11.76,152.166c-1.195,0.072-1.188,0.822-2.228,1.822
	c0.473,1.213,0.391,2.43,1.62,3.643C13.347,156.58,13.734,153.88,11.76,152.166z"/>
</svg>
