<?xml version="1.0" encoding="utf-8"?>
<!-- Generator: Adobe Illustrator 14.0.0, SVG Export Plug-In . SVG Version: 6.00 Build 43363)  -->
<!DOCTYPE svg PUBLIC "-//W3C//DTD SVG 1.1//EN" "http://www.w3.org/Graphics/SVG/1.1/DTD/svg11.dtd">
<svg version="1.1" id="Layer_1" xmlns="http://www.w3.org/2000/svg" xmlns:xlink="http://www.w3.org/1999/xlink" x="0px" y="0px"
	 width="247.692px" height="246.902px" viewBox="0 0 247.692 246.902" enable-background="new 0 0 247.692 246.902"
	 xml:space="preserve">
<path opacity="0.74" fill-rule="evenodd" clip-rule="evenodd" fill="#3F270D" d="M207.351,68.703
	C206.596,62.142,201.146,71.44,207.351,68.703L207.351,68.703z M157.729,0c-1.146,0.23-4.861,0.946-3.611,2.879
	C155.159,2.968,159.048,1.72,157.729,0z M142.071,12.135c-3.984,2.052-4.367,7.724,0.131,11.14
	C154.36,26.575,151.519,7.267,142.071,12.135z M190.079,116.306c1.23,2.477,4.981,2.616,6.099,1.956
	C194.026,117.972,192.405,116.038,190.079,116.306z M164.322,113.77c2.356,0.69,4.294,2.691,6.525,3.772
	c1.122,1.121,0.581,1.44,1.854,2.614c2.436-1.147,5.973,3.737,6.697,1.136C174.558,118.904,169.024,113.092,164.322,113.77z
	 M122.915,159.021c0.857-1.084,1.783-3.897,0.148-4.663C123.112,155.943,121.917,157.131,122.915,159.021z M105.808,133.695
	c0.912,1.35,2.148,1.688,3.465,1.782C108.228,134.539,107.372,133.012,105.808,133.695z M63.856,79.895
	c0.417,1.492,1.434,1.124,2.439,0.782C65.72,79.679,64.907,79.417,63.856,79.895z M63.06,237.709c3.33-1.072,2.69-4.859,3.358-7.335
	c3.538-13.08,11.472-24.601,14.146-37.842c2.693-7.079,6.852-13.341,9.891-20.373c1.738-4.019,2.482-8.489,4.313-12.405
	c2.834-6.063,6.41-11.689,8.303-17.52c1.795-5.52,3.911-18.455,11.553-17.148c1.904,8.104,10.429,14.422,8.164,22.795
	c1.842-1.321,0.402-2.162,3.211-2.671c0.597-3.396-1.543-7.669,0.074-10.737c2.364,0.331,5.704-2.403,7.885-1.51
	c-0.428,7.793,1.68,18.613,7.592,25.638c0.258-5.466-6.482-14.142-5.3-20.197c1.044-0.109,1.912,0.337,3.233-0.644
	c1.233-5.098,0.498-10.826,3.875-15.237c1.176,0.345,0.883,1.41,1.242,2.417c1.478-0.313-0.131-1.612,0.992-2.039
	c2.654,3.397,7.592,5.06,11.038,8.583c3.384,3.463,5.535,9.687,10.841,9.191c0.791-5.38-6.898-7.423-10.269-12.034
	c-0.71-0.974-0.612-2.301-1.253-3.429c-1.64-2.877-5.799-5.52-4.561-8.86c4.666,0.903,10.24,0.526,14.617,2.665
	c1.588,0.777,3.209,3.313,5.086,1.967c-5.525-3.399-10.707-7.874-16.529-10.343c-2.686-9.407,5.988-10.052,12.447-9.463
	c2.487,0.228,4.757-0.206,6.079-0.07c2.249,0.236,4.62,2.069,6.917,2.552c4.004,0.846,7.822,0.67,10.151,1.908
	c1.412,0.752,2.257,2.396,3.684,3.199c1.83,1.029,4.908,0.926,7.514,1.736c3.065,0.949,5.915,2.925,8.345,3.346
	c1.951,0.338,3.896-0.654,5.868-0.473c6.521,0.592,12.813,3.982,18.267,2.826c1.117-1.213,0.91-2.85-0.462-4.856
	c-4.657-2.162-10.271-1.271-15.032-3.471c-1.458-0.679-2.469-2.503-4.086-2.994c-2.537-0.766-4.624,0.616-7.282,0.693
	c-3.214,0.098-6.409-1.938-9.956-2.516c-1.881-0.308-3.732,0.466-5.467,0.265c-9.986-1.155-19.486-6.993-28.451-7.771
	c-1.445-2.36-4.987-3.021-4.938-6.627c1.9-0.336,4.181-1.856,5.661-0.876c-1.892-5.202-0.86-9.469,2.481-12.994
	c4.966-0.673,12.836-0.839,16.559-4.445c-1.563-4.218-5.674-1.356-8.516-0.713c-6.986,1.582-16.195,2.49-18.483-4.241
	c-1.333-0.388-1.724,1.424-3.624,1.865c-2.699-1.021-3.361-5.819-3.133-8.067c0.77-7.661,13.854-12.552,8.891-19.347
	c-11.996-0.494-7.824,16.416-19.629,19.272c-3.807-1.045-9.053-4.179-5.571-8.852c-1.063-2.283-3.792,0.639-4.88-1.561
	c-1.365-1.223,0.709-1.343-0.232-2.431c-0.652,0.288-1.367,0.774-1.623-0.183c-3.789-4.957-4.49-15.218-10.072-12.645
	c0.043,3.712,5.174,9.058-1.09,10.748c-4.409-2.905-3.09-8.496-5.62-12.899c-0.224-2.48,0.431-9.741-3.755-9.272
	c-1.918,8.015,7.154,19.556,1.93,26.515c-3.898-1.107-9.445-6.971-12.281-11.002c-2.38-3.375-5.619-15.705-12.135-15.657
	c-6.473,0.047-5.131,9.998-2.678,13.603c3.959,5.816,14.557,4.314,18.762,10.721c1.063,1.622,2.668,5.237,2.924,7.664
	c0.25,2.34-0.827,9.769-2.48,12.994c-1.97,3.838-3.475,6.609-7.8,8.601c-9.27-0.072-17.862,1.748-25.952-1.928
	c-2.904-1.319-5.787-5.208-9.345-2.323c0.183,3.54,4.031,4.017,6.525,3.774c4.295,2.342,8.752,4.169,13.433,5.312
	c1.131,1.367,2.188,2.962,3.097,5.03c-0.65,2.369-1.468,4.686-0.114,7.697c-0.312,0.994-1.868,0.508-3.222,1.659
	c-0.477,1.19,0.559,2.867-0.562,3.854c-5.862,4.22-11.351,5.419-17.525,8.511c-5.583,2.794-10.505,0.576-15.57,2.408
	c-5.448,1.973-8.296,1.975-11.898,4.596c-0.769,2.363,0.657,4.143,2.695,5.234c7.065-2.006,11.962,1.182,17.791-3.043
	c1.328-0.962,1.985-2.934,3.601-3.89c5.031-2.98,12.265-2.601,18.171-5.276c2.466,2.451,6.05,1.416,9.335,1.307
	c0.441,1.476-0.475,1.986,1.048,3.027c1.109,0.383,2.718-0.79,3.647,0.162c-0.302,1.137,2.064,3.128-0.161,3.648
	c0.378,1.717,2.429-0.141,1.842,1.599c-1.456,5.23-11.064,3.931-11.644,9.049c4.626,3.92,10.066-7.222,14.34-3.813
	c-0.877,1.736-4.322,2.651-2.979,5.1c3.329-1.185,3.638-5.217,6.602-6.965c1.727-1.019,4.256-0.848,6.26-1.694
	c0.78-0.327,3.723-3.87,5.248-1.681c-0.65,0.474-2.594-0.099-2.418,1.243c1.339-0.326,2.902-1.351,3.844-0.45
	c0.322,3.805-2.025,6.751-4.139,9.773c-3.221,14.886-9.271,28.866-15.709,42.721c-0.402,0.212-0.646-0.078-1.013,0.014
	c-0.269-0.565-0.645-0.788-1.024-1c-1.865,0.995,0.945,0.676,1.23,1.401c-0.305,7.267-5.512,12.65-9.098,18.947
	c-3.813,6.697-5.607,16.218-8.635,23.801c-2.262,5.658-3.875,11.582-6.082,16.884C62.384,232.804,58.999,235.505,63.06,237.709z
	 M230.913,126.363c3.254,0.337,5.877,2.649,9.148,2.934C237.528,127.393,233.142,125.726,230.913,126.363z M208.965,120.342
	c1.459-0.011,2.368,1.694,4.062,0.964C212.122,120.236,209.261,119.819,208.965,120.342z M137.745,58.17
	c1.465-1.779,5.281-4.58,4.59-5.929C140.915,54.251,137.948,55.77,137.745,58.17z M193.204,26.834
	c-1.529,1.263-1.971,2.524-0.541,3.786C194.192,29.358,194.443,28.097,193.204,26.834z M8.789,182.476
	c-1.478,0.088-1.468,1.018-2.754,2.251c0.585,1.501,0.484,3.005,2.002,4.505C10.75,187.933,11.229,184.596,8.789,182.476z"/>
</svg>
